[gd_scene load_steps=5 format=2]

[ext_resource path="res://scenes/objects/Airlock.cs" type="Script" id=1]
[ext_resource path="res://art/door/airlockframes.tres" type="SpriteFrames" id=2]
[ext_resource path="res://scenes/meta/MovementBumper.tscn" type="PackedScene" id=3]

[sub_resource type="RectangleShape2D" id=1]

custom_solver_bias = 0.0
extents = Vector2( 16, 16 )

[node name="Airlock" type="StaticBody2D"]

input_pickable = false
collision_layer = 1
collision_mask = 1
constant_linear_velocity = Vector2( 0, 0 )
constant_angular_velocity = 0.0
friction = 1.0
bounce = 0.0
script = ExtResource( 1 )

[node name="CollisionShape2D" type="CollisionShape2D" parent="."]

shape = SubResource( 1 )

[node name="AnimatedSprite" type="AnimatedSprite" parent="."]

frames = ExtResource( 2 )
animation = "closed"

[node name="CloseTimer" type="Timer" parent="."]

process_mode = 1
wait_time = 5.0
one_shot = true
autostart = false

[node name="MovementBumper" parent="." instance=ExtResource( 3 )]


